{
  "code":12600,
  "message":"成功",
  "pagination": {
    "currentPage": 2,
    "hasNextPage": true,
    "hasPreviousPage": true,
    "pageSize": 10,
    "startIndex": 11,
    "totalCount": 50,
    "totalPage": 5
  },
  "rows":[{"name":"张三","contact":"15829856251","role":"管理员","company":"联想"},
    {"name":"李四","contact":"15829856252","role":"管理员","company":"联想"},
    {"name":"王五","contact":"15829856253","role":"普通用户","company":"大众"},
    {"name":"赵六子","contact":"15829856254","role":"普通用户","company":"联想"},
    {"name":"欧阳锋","contact":"15829856255","role":"普通用户","company":"阿里"}]
}
